Analyzing Influenza Trends and Creating Seasonal Thresholds
…
`summarise()` has grouped output by 'REGION'. You can override using the
`.groups` argument.

print(ili_change)

# A tibble: 54 × 4
# Groups:   REGION [54]
   REGION               `2014/15` `2024/25` change
   <chr>                    <dbl>     <dbl>  <dbl>
 1 Alabama                  4.53       2.96 -1.57 
 2 Alaska                   1.17       2.28  1.11 
 3 Arizona                  1.39       2.82  1.43 
 4 Arkansas                 2.96       2.58 -0.380
 5 California               2.50       3.69  1.19 
 6 Colorado                 0.991      2.99  2.00 
 7 Connecticut              2.00       2.53  0.528
 8 Delaware                 0.619      1.21  0.591
 9 District of Columbia     7.10       5.14 -1.96 
10 Florida                  1.69       3.66  1.98 
# ℹ 44 more rows
…
